^E:\MATERI KULIAH\ALGORITMA DAN PEMROGRAMAN\C++\PBO\XELDA\XELDA\DEBUG\LOAD_MAP.OBJ|E:\MATERI KULIAH\ALGORITMA DAN PEMROGRAMAN\C++\PBO\XELDA\XELDA\DEBUG\MONDAIJITACHI.OBJ|E:\MATERI KULIAH\ALGORITMA DAN PEMROGRAMAN\C++\PBO\XELDA\XELDA\DEBUG\XELDA.EXE.EMBED.MANIFEST.RES|E:\MATERI KULIAH\ALGORITMA DAN PEMROGRAMAN\C++\PBO\XELDA\XELDA\DEBUG\XELDA.OBJ
/ERRORREPORT:PROMPT /OUT:"E:\Materi Kuliah\Algoritma dan Pemrograman\C++\PBO\Xelda\Debug\Xelda.exe" /INCREMENTAL /NOLOGO "sfml-audio-d.lib" "sfml-graphics-d.lib" "sfml-window-d.lib" "sfml-system-d.lib" kernel32.lib user32.lib gdi32.lib winspool.lib comdlg32.lib advapi32.lib shell32.lib ole32.lib oleaut32.lib uuid.lib odbc32.lib odbccp32.lib /MANIFEST /ManifestFile:"Debug\Xelda.exe.intermediate.manifest" /MANIFESTUAC:"level='asInvoker' uiAccess='false'" /DEBUG /PDB:"E:\Materi Kuliah\Algoritma dan Pemrograman\C++\PBO\Xelda\Debug\Xelda.pdb" /SUBSYSTEM:CONSOLE /TLBID:1 /DYNAMICBASE /NXCOMPAT /IMPLIB:"E:\Materi Kuliah\Algoritma dan Pemrograman\C++\PBO\Xelda\Debug\Xelda.lib" /MACHINE:X86 Debug\Xelda.exe.embed.manifest.res
Debug\load_map.obj
Debug\mondaijitachi.obj
Debug\Xelda.obj
